Acessando APIs com R: GitHub - Parte 1 – Beatriz Milz
…
O resultado ainda é uma lista… podemos usar a magia do pacote purrr e transformar essa lista em um dataframe:

lista_repos <-  repos_cursor  |> 
  purrr::flatten() |> 
  purrr::map(unlist, recursive = TRUE)  |> 
  purrr::map_dfr(tibble::enframe, .id = "id_repo") |> 
  tidyr::pivot_wider() |> 
  janitor::clean_names()

lista_repos

# A tibble: 313 × 108
   id_repo id        node_id        name  full_name private owner_login owner_id
   <chr>   <chr>     <chr>          <chr> <chr>     <chr>   <chr>       <chr>   
 1 1       431987860 R_kgDOGb-clA   2022… curso-r/… FALSE   curso-r     10060716
 2 2       431987947 R_kgDOGb-c6w   2022… curso-r/… FALSE   curso-r     10060716
 3 3       292873974 MDEwOlJlcG9za… main… curso-r/… FALSE   curso-r     10060716
 4 4       432004121 R_kgDOGb_cGQ   2022… curso-r/… FALSE   curso-r     10060716
 5 5       500593205 R_kgDOHdZyNQ   main… curso-r/… FALSE   curso-r     10060716
 6 6       311969160 MDEwOlJlcG9za… chess curso-r/… FALSE   curso-r     10060716
 7 7       180506470 MDEwOlJlcG9za… main… curso-r/… FALSE   curso-r     10060716
 8 8       176309514 MDEwOlJlcG9za… main… curso-r/… FALSE   curso-r     10060716
 9 9       498141879 R_kgDOHbEKtw   anac… curso-r/… FALSE   curso-r     10060716
10 10      414400266 R_kgDOGLM_Cg   muni… curso-r/… FALSE   curso-r     10060716
# … with 303 more rows, and 100 more variables: owner_node_id <chr>,
#   owner_avatar_url <chr>, owner_gravatar_id <chr>, owner_url <chr>,
#   owner_html_url <chr>, owner_followers_url <chr>, owner_following_url <chr>,
#   owner_gists_url <chr>, owner_starred_url <chr>,
#   owner_subscriptions_url <chr>, owner_organizations_url <chr>,
#   owner_repos_url <chr>, owner_events_url <chr>,
#   owner_received_events_url <chr>, owner_type <chr>, …
…
